{
  "name": "",
  "css_prefix_text": "icon-",
  "css_use_suffix": false,
  "hinting": true,
  "units_per_em": 1000,
  "ascent": 850,
  "glyphs": [
    {
      "uid": "b90d80c250a9bbdd6cd3fe00e6351710",
      "css": "ok",
      "code": 59392,
      "src": "iconic"
    },
    {
      "uid": "11e664deed5b2587456a4f9c01d720b6",
      "css": "cancel",
      "code": 59393,
      "src": "iconic"
    }
  ]
}